{
    "target_overrides": {
        "K64F": {
            "platform.stdio-baud-rate": 9600
        }
    },
    "requires": ["bare-metal"]
    ,"macros": [
        "CMSIS_NN",
        "LINUX",
        "TF_LITE_DISABLE_X86_NEON",
        "TF_LITE_STATIC_MEMORY",
        "TF_LITE_USE_CTIME"
    ]
}
